…
trash_df
```

    ## # A tibble: 344 x 14
    ##    dumpster month  year date                weight_tons volume_cubic_ya…
    ##       <dbl> <chr> <dbl> <dttm>                    <dbl>            <dbl>
    ##  1        1 May    2014 2014-05-16 00:00:00        4.31               18
    ##  2        2 May    2014 2014-05-16 00:00:00        2.74               13
    ##  3        3 May    2014 2014-05-16 00:00:00        3.45               15
    ##  4        4 May    2014 2014-05-17 00:00:00        3.1                15
    ##  5        5 May    2014 2014-05-17 00:00:00        4.06               18
    ##  6        6 May    2014 2014-05-20 00:00:00        2.71               13
    ##  7        7 May    2014 2014-05-21 00:00:00        1.91                8
    ##  8        8 May    2014 2014-05-28 00:00:00        3.7                16
    ##  9        9 June   2014 2014-06-05 00:00:00        2.52               14
    ## 10       10 June   2014 2014-06-11 00:00:00        3.76               18
    ## # … with 334 more rows, and 8 more variables: plastic_bottles <dbl>,
    ## #   polystyrene <dbl>, cigarette_butts <dbl>, glass_bottles <dbl>,
    ## #   grocery_bags <dbl>, chip_bags <dbl>, sports_balls <int>,
    ## #   homes_powered <dbl>
…
Combine two precipitation datasets.

``` r
precip_df = 
  bind_rows( precipitation_2017_df, precipitation_2018_df)

precip_df
```

    ## # A tibble: 24 x 3
    ##     year month total
    ##    <dbl> <dbl> <dbl>
    ##  1  2017     1  2.34
    ##  2  2017     2  1.46
    ##  3  2017     3  3.57
    ##  4  2017     4  3.99
    ##  5  2017     5  5.64
    ##  6  2017     6  1.4 
    ##  7  2017     7  7.09
    ##  8  2017     8  4.44
    ##  9  2017     9  1.95
    ## 10  2017    10  0   
    ## # … with 14 more rows
…
new_nyc_subway_df = 
  raw_nyc_subway_df %>%
  select(line, station_name, station_latitude, station_longitude, route1:route11, entrance_type, entry, vending, ada) %>%
  mutate(entry = recode(entry, "YES" = TRUE, "NO" = FALSE),
         route8 = as.character(route8),
         route9 = as.character(route9),
         route10 = as.character(route10),
         route11 = as.character(route11),
         vending = recode(vending, "YES" = TRUE, "NO" = FALSE))

new_nyc_subway_df
```

    ## # A tibble: 1,868 x 19
    ##    line  station_name station_latitude station_longitu… route1 route2 route3
    ##    <chr> <chr>                   <dbl>            <dbl> <chr>  <chr>  <chr> 
    ##  1 4 Av… 25th St                  40.7            -74.0 R      <NA>   <NA>  
    ##  2 4 Av… 25th St                  40.7            -74.0 R      <NA>   <NA>  
    ##  3 4 Av… 36th St                  40.7            -74.0 N      R      <NA>  
    ##  4 4 Av… 36th St                  40.7            -74.0 N      R      <NA>  
    ##  5 4 Av… 36th St                  40.7            -74.0 N      R      <NA>  
    ##  6 4 Av… 45th St                  40.6            -74.0 R      <NA>   <NA>  
    ##  7 4 Av… 45th St                  40.6            -74.0 R      <NA>   <NA>  
    ##  8 4 Av… 45th St                  40.6            -74.0 R      <NA>   <NA>  
    ##  9 4 Av… 45th St                  40.6            -74.0 R      <NA>   <NA>  
    ## 10 4 Av… 53rd St                  40.6            -74.0 R      <NA>   <NA>  
    ## # … with 1,858 more rows, and 12 more variables: route4 <chr>, route5 <chr>,
    ## #   route6 <chr>, route7 <chr>, route8 <chr>, route9 <chr>, route10 <chr>,
    ## #   route11 <chr>, entrance_type <chr>, entry <lgl>, vending <lgl>, ada <lgl>
…
``` r
reformat_nyc_subway_df<-
  new_nyc_subway_df%>%
  pivot_longer(
    route1 : route11,
    names_to = "route_number",
    values_to = "route_name"
    ) %>%
  drop_na(route_name)

reformat_nyc_subway_df
```

    ## # A tibble: 4,270 x 10
    ##    line  station_name station_latitude station_longitu… entrance_type entry
    ##    <chr> <chr>                   <dbl>            <dbl> <chr>         <lgl>
    ##  1 4 Av… 25th St                  40.7            -74.0 Stair         TRUE 
    ##  2 4 Av… 25th St                  40.7            -74.0 Stair         TRUE 
    ##  3 4 Av… 36th St                  40.7            -74.0 Stair         TRUE 
    ##  4 4 Av… 36th St                  40.7            -74.0 Stair         TRUE 
    ##  5 4 Av… 36th St                  40.7            -74.0 Stair         TRUE 
    ##  6 4 Av… 36th St                  40.7            -74.0 Stair         TRUE 
    ##  7 4 Av… 36th St                  40.7            -74.0 Stair         TRUE 
    ##  8 4 Av… 36th St                  40.7            -74.0 Stair         TRUE 
    ##  9 4 Av… 45th St                  40.6            -74.0 Stair         TRUE 
    ## 10 4 Av… 45th St                  40.6            -74.0 Stair         TRUE 
    ## # … with 4,260 more rows, and 4 more variables: vending <lgl>, ada <lgl>,
    ## #   route_number <chr>, route_name <chr>
…
pols_month_df
```

    ## # A tibble: 817 x 9
    ##    year  month     president gov_gop sen_gop rep_gop gov_dem sen_dem rep_dem
    ##    <chr> <chr>     <chr>       <dbl>   <dbl>   <dbl>   <dbl>   <dbl>   <dbl>
    ##  1 1947  January   dem            23      51     253      23      45     198
    ##  2 1947  February  dem            23      51     253      23      45     198
    ##  3 1947  March     dem            23      51     253      23      45     198
    ##  4 1947  April     dem            23      51     253      23      45     198
    ##  5 1947  May       dem            23      51     253      23      45     198
    ##  6 1947  June      dem            23      51     253      23      45     198
    ##  7 1947  July      dem            23      51     253      23      45     198
    ##  8 1947  August    dem            23      51     253      23      45     198
    ##  9 1947  September dem            23      51     253      23      45     198
    ## 10 1947  October   dem            23      51     253      23      45     198
    ## # … with 807 more rows
…
snp_df
```

    ## # A tibble: 787 x 3
    ##    year  month     close
    ##    <chr> <chr>     <dbl>
    ##  1 1950  January    17.0
    ##  2 1950  February   17.2
    ##  3 1950  March      17.3
    ##  4 1950  April      18.0
    ##  5 1950  May        18.8
    ##  6 1950  June       17.7
    ##  7 1950  July       17.8
    ##  8 1950  August     18.4
    ##  9 1950  September  19.5
    ## 10 1950  October    19.5
    ## # … with 777 more rows
…
unemployment_df
```

    ## # A tibble: 810 x 3
    ##    year  month     unemployment_pct
    ##    <chr> <chr>                <dbl>
    ##  1 1948  January                3.4
    ##  2 1948  February               3.8
    ##  3 1948  March                  4  
    ##  4 1948  April                  3.9
    ##  5 1948  May                    3.5
    ##  6 1948  June                   3.6
    ##  7 1948  July                   3.6
    ##  8 1948  August                 3.9
    ##  9 1948  September              3.8
    ## 10 1948  October                3.7
    ## # … with 800 more rows

Merging the three data frames.

``` r
result_data = 
  full_join(pols_month_df, snp_df, by = c("year", "month")) %>% 
  full_join(unemployment_df, by = c("year", "month")) %>% 
  arrange(year)

result_data
```

    ## # A tibble: 823 x 11
    ##    year  month president gov_gop sen_gop rep_gop gov_dem sen_dem rep_dem close
    ##    <chr> <chr> <chr>       <dbl>   <dbl>   <dbl>   <dbl>   <dbl>   <dbl> <dbl>
    ##  1 1947  Janu… dem            23      51     253      23      45     198    NA
    ##  2 1947  Febr… dem            23      51     253      23      45     198    NA
    ##  3 1947  March dem            23      51     253      23      45     198    NA
    ##  4 1947  April dem            23      51     253      23      45     198    NA
    ##  5 1947  May   dem            23      51     253      23      45     198    NA
    ##  6 1947  June  dem            23      51     253      23      45     198    NA
    ##  7 1947  July  dem            23      51     253      23      45     198    NA
    ##  8 1947  Augu… dem            23      51     253      23      45     198    NA
    ##  9 1947  Sept… dem            23      51     253      23      45     198    NA
    ## 10 1947  Octo… dem            23      51     253      23      45     198    NA
    ## # … with 813 more rows, and 1 more variable: unemployment_pct <dbl>
…
